<svg xmlns="http://www.w3.org/2000/svg" width="18" height="18" viewBox="0 0 18 18">
  <path id="ic_create_24px" d="M3,17.248V21H6.749L17.808,9.939,14.058,6.19ZM20.708,7.039a1,1,0,0,0,0-1.41l-2.34-2.34a1,1,0,0,0-1.41,0l-1.83,1.83,3.749,3.749,1.83-1.83Z" transform="translate(-3 -2.997)" fill="#fff"/>
</svg>
