<svg xmlns="http://www.w3.org/2000/svg" width="4" height="16" viewBox="0 0 4 16">
  <path id="ic_more_vert_24px" d="M12,8a2,2,0,1,0-2-2A2.006,2.006,0,0,0,12,8Zm0,2a2,2,0,1,0,2,2A2.006,2.006,0,0,0,12,10Zm0,6a2,2,0,1,0,2,2A2.006,2.006,0,0,0,12,16Z" transform="translate(-10 -4)" fill="#28518d"/>
</svg>
